{
    "success": true,
    "data": [
        {
            "itemId": "e6564b13-b723-4352-99bf-8fc91cfc5a7f",
            "title": "Famsp",
            "author": "Sappawat",
            "category": "GayPorn",
            "publishYear": 1985,
            "isbn": "978-2-7432-6969-5",
            "status": "AVAILABLE",
            "coverImage": "https://example.com/cover.jpg",
            "description": "A classic LGBTQ++ novel",
            "location": "A1-B2-C3",
            "addedDate": "2025-10-03T14:12:26.759Z",
            "itemType": "Book",
            "publisher": "ElonMusk",
            "edition": "Lastsupper",
            "pageCount": 185,
            "language": "Sulu",
            "genre": "Erotic",
            "createdAt": "2025-10-03T14:12:26.759Z",
            "updatedAt": "2025-10-03T14:12:26.759Z",
            "deletedAt": null
        },
        {
            "itemId": "09618e9f-9895-428b-85d7-fe0a9d978db6",
            "title": "Great Gatsby",
            "author": "F. Scott Fitzgerald",
            "category": "Classic Literature",
            "publishYear": 1925,
            "isbn": "978-5-7432-7323-1",
            "status": "AVAILABLE",
            "coverImage": "https://example.com/cover.jpg",
            "description": "A classic American novel",
            "location": "A1-B2-C3",
            "addedDate": "2025-10-03T14:06:14.949Z",
            "itemType": "Book",
            "publisher": "Scribner",
            "edition": "First Edition",
            "pageCount": 152,
            "language": "English",
            "genre": "Fiction",
            "createdAt": "2025-10-03T14:06:14.950Z",
            "updatedAt": "2025-10-03T14:06:14.950Z",
            "deletedAt": null
        },
        {
            "itemId": "1d143113-28e7-4a07-abef-74d0278b2aba",
            "title": "To Kill a Mockingbird",
            "author": "Harper Lee",
            "category": "Classic Literature",
            "publishYear": 1960,
            "isbn": "978-0-06-112008-4",
            "status": "AVAILABLE",
            "coverImage": "https://m.media-amazon.com/images/I/81O7u0dGaWL._UF894,1000_QL80_.jpg",
            "description": "A novel about racial injustice in the Deep South",
            "location": "B1-C1-D2",
            "addedDate": "2025-10-03T09:28:22.501Z",
            "itemType": "Book",
            "publisher": "J.B. Lippincott & Co.",
            "edition": "First Edition",
            "pageCount": 281,
            "language": "English",
            "genre": "Fiction",
            "createdAt": "2025-10-03T09:28:22.501Z",
            "updatedAt": "2025-10-03T09:28:22.501Z",
            "deletedAt": null
        },
        {
            "itemId": "827812c4-188a-4b71-9233-04acf614e321",
            "title": "The Great Gatsby",
            "author": "F. Scott Fitzgerald",
            "category": "Classic Literature",
            "publishYear": 1925,
            "isbn": "978-0-7432-5555-5",
            "status": "AVAILABLE",
            "coverImage": "https://example.com/cover.jpg",
            "description": "A classic American novel",
            "location": "A1-B2-C3",
            "addedDate": "2025-10-03T09:21:23.343Z",
            "itemType": "Book",
            "publisher": "Scribner",
            "edition": "First Edition",
            "pageCount": 180,
            "language": "English",
            "genre": "Fiction",
            "createdAt": "2025-10-03T09:21:23.343Z",
            "updatedAt": "2025-10-03T09:21:23.343Z",
            "deletedAt": null
        },
        {
            "itemId": "c034c307-260f-4486-b166-cd9487d27968",
            "title": "Nature Scientific Journal",
            "author": "Various Authors",
            "category": "Science",
            "publishYear": 2023,
            "isbn": "978-0-7432-9875-5",
            "status": "AVAILABLE",
            "coverImage": "https://upload.wikimedia.org/wikipedia/commons/2/21/Nature_volume_536_number_7617_cover_displaying_an_artist%E2%80%99s_impression_of_Proxima_Centauri_b.jpg",
            "description": "A peer-reviewed scientific journal",
            "location": "Shelf A3",
            "addedDate": "2025-10-03T09:19:13.578Z",
            "itemType": "Book",
            "publisher": "Academic Press",
            "edition": "Vol. 15, Issue 3",
            "pageCount": 120,
            "language": "English",
            "genre": "Scientific Journal",
            "createdAt": "2025-10-03T09:19:13.578Z",
            "updatedAt": "2025-10-03T09:19:13.578Z",
            "deletedAt": null
        },
        {
            "itemId": "189a2b36-ce33-4f63-b0fd-5c8b127f5203",
            "title": "The Great Gatsby",
            "author": "F. Scott Fitzgerald",
            "category": "Classic Literature",
            "publishYear": 1925,
            "isbn": "978-0-1234-7356-5",
            "status": "AVAILABLE",
            "coverImage": "https://example.com/cover.jpg",
            "description": "A classic American novel",
            "location": "A1-B2-C3",
            "addedDate": "2025-10-03T08:05:16.919Z",
            "itemType": "Book",
            "publisher": "Scribner",
            "edition": "First Edition",
            "pageCount": 180,
            "language": "English",
            "genre": "Fiction",
            "createdAt": "2025-10-03T08:05:16.919Z",
            "updatedAt": "2025-10-03T08:05:16.919Z",
            "deletedAt": null
        },
        {
            "itemId": "d9e583db-5fe2-44ee-aedf-fed0469662d7",
            "title": "The Great GatsbyOP",
            "author": "F. Scott Fitzgerald",
            "category": "Classic Literatures",
            "publishYear": 1925,
            "isbn": "978-1-7432-7777-7",
            "status": "AVAILABLE",
            "coverImage": "https://example.com/cover.jpg",
            "description": "A classic American novel",
            "location": "A1-B2-C3",
            "addedDate": "2025-10-03T07:54:52.175Z",
            "itemType": "Book",
            "publisher": "Scribner",
            "edition": "First Edition",
            "pageCount": 180,
            "language": "English",
            "genre": "Fiction",
            "createdAt": "2025-10-03T07:54:52.176Z",
            "updatedAt": "2025-10-03T07:54:52.176Z",
            "deletedAt": null
        },
        {
            "itemId": "07617ff6-65d5-4998-94fa-27bfe2aa476d",
            "title": "Great Gatsby",
            "author": "F. Scott Fitzgerald",
            "category": "Classic Literature",
            "publishYear": 1925,
            "isbn": "978-5-8432-7356-5",
            "status": "AVAILABLE",
            "coverImage": "https://example.com/cover.jpg",
            "description": "A classic American novel",
            "location": "A1-B2-C3",
            "addedDate": "2025-10-03T07:33:30.040Z",
            "itemType": "Book",
            "publisher": "Scribner",
            "edition": "First Edition",
            "pageCount": 180,
            "language": "English",
            "genre": "Fiction",
            "createdAt": "2025-10-03T07:33:30.040Z",
            "updatedAt": "2025-10-03T07:33:30.040Z",
            "deletedAt": null
        },
        {
            "itemId": "8c1a667f-a72a-40c9-9dee-9e777956b874",
            "title": "Great Gatsby",
            "author": "F. Scott Fitzgerald",
            "category": "Classic Literature",
            "publishYear": 1925,
            "isbn": "978-5-7432-7356-5",
            "status": "AVAILABLE",
            "coverImage": "https://example.com/cover.jpg",
            "description": "A classic American novel",
            "location": "A1-B2-C3",
            "addedDate": "2025-10-03T05:31:39.627Z",
            "itemType": "Book",
            "publisher": "Scribner",
            "edition": "First Edition",
            "pageCount": 180,
            "language": "English",
            "genre": "Fiction",
            "createdAt": "2025-10-03T05:31:39.627Z",
            "updatedAt": "2025-10-03T05:31:39.627Z",
            "deletedAt": null
        },
        {
            "itemId": "fb01df9f-5436-461d-b022-3175f9c0f61f",
            "title": "Great Gatsby",
            "author": "F. Scott Fitzgerald",
            "category": "Classic Literature",
            "publishYear": 1925,
            "isbn": "978-9-7432-7356-5",
            "status": "AVAILABLE",
            "coverImage": "https://example.com/cover.jpg",
            "description": "A classic American novel",
            "location": "A1-B2-C3",
            "addedDate": "2025-10-03T05:25:31.142Z",
            "itemType": "Book",
            "publisher": "Scribner",
            "edition": "First Edition",
            "pageCount": 180,
            "language": "English",
            "genre": "Fiction",
            "createdAt": "2025-10-03T05:25:31.142Z",
            "updatedAt": "2025-10-03T05:25:31.142Z",
            "deletedAt": null
        }
    ],
    "pagination": {
        "currentPage": 1,
        "totalPages": 2,
        "totalItems": 13,
        "itemsPerPage": 10,
        "hasNextPage": true,
        "hasPrevPage": false
    }
}