{
    "success": true,
    "data": [
        {
            "itemId": "e6564b13-b723-4352-99bf-8fc91cfc5a7f",
            "title": "Famsp",
            "author": "Sappawat",
            "category": "GayPorn",
            "publishYear": 1985,
            "isbn": "978-2-7432-6969-5",
            "status": "AVAILABLE",
            "coverImage": "https://example.com/cover.jpg",
            "description": "A classic LGBTQ++ novel",
            "location": "A1-B2-C3",
            "addedDate": "2025-10-03T14:12:26.759Z",
            "itemType": "Book",
            "publisher": "ElonMusk",
            "edition": "Lastsupper",
            "pageCount": 185,
            "language": "Sulu",
            "genre": "Erotic",
            "createdAt": "2025-10-03T14:12:26.759Z",
            "updatedAt": "2025-10-03T14:12:26.759Z",
            "deletedAt": null
        },
        {
            "itemId": "09618e9f-9895-428b-85d7-fe0a9d978db6",
            "title": "Great Gatsby",
            "author": "F. Scott Fitzgerald",
            "category": "Classic Literature",
            "publishYear": 1925,
            "isbn": "978-5-7432-7323-1",
            "status": "AVAILABLE",
            "coverImage": "https://example.com/cover.jpg",
            "description": "A classic American novel",
            "location": "A1-B2-C3",
            "addedDate": "2025-10-03T14:06:14.949Z",
            "itemType": "Book",
            "publisher": "Scribner",
            "edition": "First Edition",
            "pageCount": 152,
            "language": "English",
            "genre": "Fiction",
            "createdAt": "2025-10-03T14:06:14.950Z",
            "updatedAt": "2025-10-03T14:06:14.950Z",
            "deletedAt": null
        },
        {
            "itemId": "1d143113-28e7-4a07-abef-74d0278b2aba",
            "title": "To Kill a Mockingbird",
            "author": "Harper Lee",
            "category": "Classic Literature",
            "publishYear": 1960,
            "isbn": "978-0-06-112008-4",
            "status": "AVAILABLE",
            "coverImage": "https://m.media-amazon.com/images/I/81O7u0dGaWL._UF894,1000_QL80_.jpg",
            "description": "A novel about racial injustice in the Deep South",
            "location": "B1-C1-D2",
            "addedDate": "2025-10-03T09:28:22.501Z",
            "itemType": "Book",
            "publisher": "J.B. Lippincott & Co.",
            "edition": "First Edition",
            "pageCount": 281,
            "language": "English",
            "genre": "Fiction",
            "createdAt": "2025-10-03T09:28:22.501Z",
            "updatedAt": "2025-10-03T09:28:22.501Z",
            "deletedAt": null
        },
        {
            "itemId": "827812c4-188a-4b71-9233-04acf614e321",
            "title": "The Great Gatsby",
            "author": "F. Scott Fitzgerald",
            "category": "Classic Literature",
            "publishYear": 1925,
            "isbn": "978-0-7432-5555-5",
            "status": "AVAILABLE",
            "coverImage": "https://example.com/cover.jpg",
            "description": "A classic American novel",
            "location": "A1-B2-C3",
            "addedDate": "2025-10-03T09:21:23.343Z",
            "itemType": "Book",
            "publisher": "Scribner",
            "edition": "First Edition",
            "pageCount": 180,
            "language": "English",
            "genre": "Fiction",
            "createdAt": "2025-10-03T09:21:23.343Z",
            "updatedAt": "2025-10-03T09:21:23.343Z",
            "deletedAt": null
        },
        {
            "itemId": "c034c307-260f-4486-b166-cd9487d27968",
            "title": "Nature Scientific Journal",
            "author": "Various Authors",
            "category": "Science",
            "publishYear": 2023,
            "isbn": "978-0-7432-9875-5",
            "status": "AVAILABLE",
            "coverImage": "https://upload.wikimedia.org/wikipedia/commons/2/21/Nature_volume_536_number_7617_cover_displaying_an_artist%E2%80%99s_impression_of_Proxima_Centauri_b.jpg",
            "description": "A peer-reviewed scientific journal",
            "location": "Shelf A3",
            "addedDate": "2025-10-03T09:19:13.578Z",
            "itemType": "Book",
            "publisher": "Academic Press",
            "edition": "Vol. 15, Issue 3",
            "pageCount": 120,
            "language": "English",
            "genre": "Scientific Journal",
            "createdAt": "2025-10-03T09:19:13.578Z",
            "updatedAt": "2025-10-03T09:19:13.578Z",
            "deletedAt": null
        },
        {
            "itemId": "189a2b36-ce33-4f63-b0fd-5c8b127f5203",
            "title": "The Great Gatsby",
            "author": "F. Scott Fitzgerald",
            "category": "Classic Literature",
            "publishYear": 1925,
            "isbn": "978-0-1234-7356-5",
            "status": "AVAILABLE",
            "coverImage": "https://example.com/cover.jpg",
            "description": "A classic American novel",
            "location": "A1-B2-C3",
            "addedDate": "2025-10-03T08:05:16.919Z",
            "itemType": "Book",
            "publisher": "Scribner",
            "edition": "First Edition",
            "pageCount": 180,
            "language": "English",
            "genre": "Fiction",
            "createdAt": "2025-10-03T08:05:16.919Z",
            "updatedAt": "2025-10-03T08:05:16.919Z",
            "deletedAt": null
        },
        {
            "itemId": "d9e583db-5fe2-44ee-aedf-fed0469662d7",
            "title": "The Great GatsbyOP",
            "author": "F. Scott Fitzgerald",
            "category": "Classic Literatures",
            "publishYear": 1925,
            "isbn": "978-1-7432-7777-7",
            "status": "AVAILABLE",
            "coverImage": "https://example.com/cover.jpg",
            "description": "A classic American novel",
            "location": "A1-B2-C3",
            "addedDate": "2025-10-03T07:54:52.175Z",
            "itemType": "Book",
            "publisher": "Scribner",
            "edition": "First Edition",
            "pageCount": 180,
            "language": "English",
            "genre": "Fiction",
            "createdAt": "2025-10-03T07:54:52.176Z",
            "updatedAt": "2025-10-03T07:54:52.176Z",
            "deletedAt": null
        },
        {
            "itemId": "07617ff6-65d5-4998-94fa-27bfe2aa476d",
            "title": "Great Gatsby",
            "author": "F. Scott Fitzgerald",
            "category": "Classic Literature",
            "publishYear": 1925,
            "isbn": "978-5-8432-7356-5",
            "status": "AVAILABLE",
            "coverImage": "https://example.com/cover.jpg",
            "description": "A classic American novel",
            "location": "A1-B2-C3",
            "addedDate": "2025-10-03T07:33:30.040Z",
            "itemType": "Book",
            "publisher": "Scribner",
            "edition": "First Edition",
            "pageCount": 180,
            "language": "English",
            "genre": "Fiction",
            "createdAt": "2025-10-03T07:33:30.040Z",
            "updatedAt": "2025-10-03T07:33:30.040Z",
            "deletedAt": null
        },
        {
            "itemId": "8c1a667f-a72a-40c9-9dee-9e777956b874",
            "title": "Great Gatsby",
            "author": "F. Scott Fitzgerald",
            "category": "Classic Literature",
            "publishYear": 1925,
            "isbn": "978-5-7432-7356-5",
            "status": "AVAILABLE",
            "coverImage": "https://example.com/cover.jpg",
            "description": "A classic American novel",
            "location": "A1-B2-C3",
            "addedDate": "2025-10-03T05:31:39.627Z",
            "itemType": "Book",
            "publisher": "Scribner",
            "edition": "First Edition",
            "pageCount": 180,
            "language": "English",
            "genre": "Fiction",
            "createdAt": "2025-10-03T05:31:39.627Z",
            "updatedAt": "2025-10-03T05:31:39.627Z",
            "deletedAt": null
        },
        {
            "itemId": "fb01df9f-5436-461d-b022-3175f9c0f61f",
            "title": "Great Gatsby",
            "author": "F. Scott Fitzgerald",
            "category": "Classic Literature",
            "publishYear": 1925,
            "isbn": "978-9-7432-7356-5",
            "status": "AVAILABLE",
            "coverImage": "https://example.com/cover.jpg",
            "description": "A classic American novel",
            "location": "A1-B2-C3",
            "addedDate": "2025-10-03T05:25:31.142Z",
            "itemType": "Book",
            "publisher": "Scribner",
            "edition": "First Edition",
            "pageCount": 180,
            "language": "English",
            "genre": "Fiction",
            "createdAt": "2025-10-03T05:25:31.142Z",
            "updatedAt": "2025-10-03T05:25:31.142Z",
            "deletedAt": null
        },
        {
            "itemId": "8388642f-b9aa-4472-aeea-b73b306c9ce4",
            "title": "AMAGEDON",
            "author": "Various Authors",
            "category": "Science",
            "publishYear": 2025,
            "isbn": null,
            "status": "AVAILABLE",
            "coverImage": null,
            "description": "A peer-reviewed scientific journal",
            "location": null,
            "addedDate": "2025-10-03T14:58:36.772Z",
            "itemType": "Journal",
            "issn": "1234-4248",
            "volume": "Vol. 1",
            "issue": "Issue 1",
            "publicationFrequency": "MONTHLY",
            "publisher": "Academic Press",
            "createdAt": "2025-10-03T14:58:36.772Z",
            "updatedAt": "2025-10-03T14:58:36.772Z",
            "deletedAt": null
        },
        {
            "itemId": "be919ac8-0b54-4c61-a093-2c2cf590a90e",
            "title": "AMAGEDON",
            "author": "Various Authors",
            "category": "Science",
            "publishYear": 2025,
            "isbn": null,
            "status": "AVAILABLE",
            "coverImage": null,
            "description": "A peer-reviewed scientific journal",
            "location": null,
            "addedDate": "2025-10-03T14:56:54.199Z",
            "itemType": "Journal",
            "issn": "1234-4648",
            "volume": "Vol. 1",
            "issue": "Issue 1",
            "publicationFrequency": "MONTHLY",
            "publisher": "Academic Press",
            "createdAt": "2025-10-03T14:56:54.199Z",
            "updatedAt": "2025-10-03T14:56:54.199Z",
            "deletedAt": null
        },
        {
            "itemId": "795ab1ce-b568-4391-8520-59441451dd97",
            "title": "AMAGEDON",
            "author": "Various Authors",
            "category": "Science",
            "publishYear": 2025,
            "isbn": null,
            "status": "AVAILABLE",
            "coverImage": null,
            "description": "A peer-reviewed scientific journal",
            "location": null,
            "addedDate": "2025-10-03T14:56:15.409Z",
            "itemType": "Journal",
            "issn": "1234-5648",
            "volume": "Vol. 15",
            "issue": "Issue 3",
            "publicationFrequency": "MONTHLY",
            "publisher": "Academic Press",
            "createdAt": "2025-10-03T14:56:15.409Z",
            "updatedAt": "2025-10-03T14:56:15.409Z",
            "deletedAt": null
        },
        {
            "itemId": "e28528d8-945c-48d5-8202-493b775d7ce4",
            "title": "AMAGEDON",
            "author": "Various Authors",
            "category": "Science",
            "publishYear": 2023,
            "isbn": null,
            "status": "AVAILABLE",
            "coverImage": null,
            "description": "A peer-reviewed scientific journal",
            "location": null,
            "addedDate": "2025-10-03T14:56:02.037Z",
            "itemType": "Journal",
            "issn": "1234-1248",
            "volume": "Vol. 15",
            "issue": "Issue 3",
            "publicationFrequency": "MONTHLY",
            "publisher": "Academic Press",
            "createdAt": "2025-10-03T14:56:02.037Z",
            "updatedAt": "2025-10-03T14:56:02.037Z",
            "deletedAt": null
        },
        {
            "itemId": "863ef9ab-2f7f-4832-a596-69b3f96892b0",
            "title": "Nature Scientific Journal",
            "author": "Various Authors",
            "category": "Science",
            "publishYear": 2023,
            "isbn": null,
            "status": "AVAILABLE",
            "coverImage": null,
            "description": "A peer-reviewed scientific journal",
            "location": null,
            "addedDate": "2025-10-03T14:55:45.695Z",
            "itemType": "Journal",
            "issn": "1234-9648",
            "volume": "Vol. 15",
            "issue": "Issue 3",
            "publicationFrequency": "MONTHLY",
            "publisher": "Academic Press",
            "createdAt": "2025-10-03T14:55:45.695Z",
            "updatedAt": "2025-10-03T14:55:45.695Z",
            "deletedAt": null
        },
        {
            "itemId": "5d02498e-c1be-4628-85bc-856670a14eb8",
            "title": "Nature Scientific Journal",
            "author": "Various Authors",
            "category": "Science",
            "publishYear": 2023,
            "isbn": null,
            "status": "AVAILABLE",
            "coverImage": null,
            "description": "A peer-reviewed scientific journal",
            "location": null,
            "addedDate": "2025-10-03T14:51:58.012Z",
            "itemType": "Journal",
            "issn": "1234-9678",
            "volume": "Vol. 15",
            "issue": "Issue 3",
            "publicationFrequency": "MONTHLY",
            "publisher": "Academic Press",
            "createdAt": "2025-10-03T14:51:58.012Z",
            "updatedAt": "2025-10-03T14:51:58.012Z",
            "deletedAt": null
        },
        {
            "itemId": "478ff457-5952-4094-9862-5dc66c673868",
            "title": "Great Gatsby114789",
            "author": "Scott789",
            "category": "Classic789",
            "publishYear": 2000,
            "isbn": "978-0-7432-7356-8",
            "status": "AVAILABLE",
            "coverImage": "https://example.com/cover.jpg",
            "description": "novel789",
            "location": "C3",
            "addedDate": "2025-09-29T08:09:14.859Z",
            "itemType": "Journal",
            "issn": null,
            "volume": null,
            "issue": null,
            "publicationFrequency": "MONTHLY",
            "publisher": "Scribner789",
            "createdAt": "2025-09-29T08:09:14.859Z",
            "updatedAt": "2025-09-30T15:59:42.851Z",
            "deletedAt": null
        },
        {
            "itemId": "5c129897-2dfe-4348-b007-7ebb7a29d447",
            "title": "Nature Journal - Updated1",
            "author": "Various Authors1",
            "category": "Science1",
            "publishYear": 2024,
            "isbn": null,
            "status": "AVAILABLE",
            "coverImage": null,
            "description": "An updated prestigious scientific journal",
            "location": null,
            "addedDate": "2025-09-28T16:12:42.448Z",
            "itemType": "Journal",
            "issn": "1234-5679",
            "volume": "Vol. 16",
            "issue": "Issue 4",
            "publicationFrequency": "MONTHLY",
            "publisher": "Academic Press",
            "createdAt": "2025-09-28T16:12:42.448Z",
            "updatedAt": "2025-09-30T16:00:07.209Z",
            "deletedAt": null
        },
        {
            "itemId": "76087f22-2533-4f92-a493-5d03ffb7513d",
            "title": "Spider-Man From hell",
            "author": "Spider-Man",
            "category": "Superhero",
            "publishYear": 1962,
            "isbn": "978-0-7851-9912-5",
            "status": "AVAILABLE",
            "coverImage": null,
            "description": "The first appearance of Spider-Man",
            "location": null,
            "addedDate": "2025-10-03T14:37:31.664Z",
            "itemType": "Comic",
            "series": "Spider-Man",
            "volumeNumber": 1,
            "illustrator": "Steve Ditko",
            "colorType": "FULL_COLOR",
            "targetAge": "TEEN",
            "createdAt": "2025-10-03T14:37:31.664Z",
            "updatedAt": "2025-10-03T14:37:31.664Z",
            "deletedAt": null
        },
        {
            "itemId": "6e31f23f-e9ea-4507-8a41-57db3e953a86",
            "title": "Spider-Man: Amazing Fantasy",
            "author": "Stan Lee",
            "category": "Superhero",
            "publishYear": 1962,
            "isbn": "978-0-7851-5614-3",
            "status": "AVAILABLE",
            "coverImage": "testImage.img",
            "description": "The first appearance of Spider-Man",
            "location": null,
            "addedDate": "2025-09-29T13:13:27.996Z",
            "itemType": "Comic",
            "series": "Spider-Man",
            "volumeNumber": 1,
            "illustrator": "Steve Ditko",
            "colorType": "FULL_COLOR",
            "targetAge": "TEEN",
            "createdAt": "2025-09-29T13:13:27.996Z",
            "updatedAt": "2025-09-29T13:13:27.996Z",
            "deletedAt": null
        },
        {
            "itemId": "e2ebebbb-b7bb-4744-92e5-e84e78f34324",
            "title": "Spider-Man: Amazing Fantasy",
            "author": "Stan Lee",
            "category": "Superhero",
            "publishYear": 1962,
            "isbn": "978-0-7777-5612-5",
            "status": "AVAILABLE",
            "coverImage": null,
            "description": "The first appearance of Spider-Man",
            "location": null,
            "addedDate": "2025-09-29T07:17:06.493Z",
            "itemType": "Comic",
            "series": "Spider-Man",
            "volumeNumber": 1,
            "illustrator": "Steve Ditko",
            "colorType": "FULL_COLOR",
            "targetAge": "TEEN",
            "createdAt": "2025-09-29T07:17:06.493Z",
            "updatedAt": "2025-09-29T07:17:06.493Z",
            "deletedAt": null
        },
        {
            "itemId": "0fc0bc50-261b-43c8-97b0-19ce1b1a0c83",
            "title": "Spider-Man: Amazing Fantasy 22",
            "author": "Stan Lee",
            "category": "Superhero",
            "publishYear": 1962,
            "isbn": "978-0-7851-5612-5",
            "status": "AVAILABLE",
            "coverImage": null,
            "description": "The first appearance of Spider-Man",
            "location": null,
            "addedDate": "2025-09-28T16:12:48.740Z",
            "itemType": "Comic",
            "series": "Spider-Man",
            "volumeNumber": 1,
            "illustrator": "Steve Ditko",
            "colorType": "FULL_COLOR",
            "targetAge": "TEEN",
            "createdAt": "2025-09-28T16:12:48.740Z",
            "updatedAt": "2025-09-28T16:12:48.740Z",
            "deletedAt": null
        }
    ],
    "pagination": {
        "currentPage": 1,
        "totalPages": 3,
        "totalItems": 25,
        "itemsPerPage": 10,
        "hasNextPage": true,
        "hasPrevPage": false
    }
}